{
    "id": "pf2e-tweaks",
    "title": "PF2e Tweaks by Ustin",
    "description": "Minimalistic clock. XP macro.",
    "version": "0.7.2",
    "library": "false",
    "compatibility": {
        "minimum": "10.291",
        "verified": "11.304"
    },
    "type": "module",
    "author": "Ustin",
    "authors": [{
        "name": "Ustin",
        "url": "https://gitlab.com/Ustin",
        "discord": "Ustin@2388"
    }],
    "conflicts": [],
    "esmodules": [
        "./scripts/minimalistic-clock.js"
    ],
    "styles":[
        "./css/clock.css"
    ],
    "packs": [{
        "name": "pf2e-tweaks-by-ustin",
        "label": "PF2e tweaks by Ustin - macros",
        "path": "packs/pf2e-tweaks-by-ustin.db",
        "module": "pf2e-tweaks",
        "type": "Macro"
    }],
    "url": "https://gitlab.com/Ustin/PF2e-tweaks",
    "manifest": "https://gitlab.com/Ustin/PF2e-tweaks/-/raw/master/module.json",
    "download": "https://gitlab.com/Ustin/PF2e-tweaks/-/archive/master/ec-maps-remake-master.zip"
}
